email,fullname,firstname,lastname,date added,country,postal code,num purchases
alan.demit@hotmail.com,,,,Jan 30 2018 07:15 PM UTC,US,537,0
jamiesringcircus@hotmail.com,,,,Feb 15 2018 11:58 PM UTC,IE,nana,0
litrian@yandex.ru,,,,Feb 16 2018 07:09 AM UTC,RU,068,0
nihil_interit@aim.com,,,,Feb 16 2018 05:22 PM UTC,FR,30900,0
sprietovillegas@gmail.com,,,,Feb 16 2018 10:51 PM UTC,CL,056,0
mathieuraymondfortin@outlook.com,,,,Feb 20 2018 03:03 PM UTC,,,0
